^C:\USERS\АНТОН\SOURCE\REPOS\UE4_PRACTICE18\DEBUG\UE4_PRACTICE18.OBJ
C:\USERS\Антон\SOURCE\REPOS\UE4_PRACTICE18\DEBUG\UE4_PRACTICE18.EXE
C:\USERS\Антон\SOURCE\REPOS\UE4_PRACTICE18\DEBUG\UE4_PRACTICE18.ILK
C:\USERS\АНТОН\SOURCE\REPOS\UE4_PRACTICE18\DEBUG\UE4_PRACTICE18.PDB
